<?xml version="1.0" encoding="utf-8"?>
<!-- Generator: Adobe Illustrator 23.0.6, SVG Export Plug-In . SVG Version: 6.00 Build 0)  -->
<svg version="1.1" id="Capa_1" xmlns="http://www.w3.org/2000/svg" xmlns:xlink="http://www.w3.org/1999/xlink" x="0px" y="0px"
	 width="1000px" height="1000px" viewBox="0 0 1000 1000" enable-background="new 0 0 1000 1000" xml:space="preserve">
<path d="M500,0C224.3,0,0,224.3,0,500s224.3,500,500,500s500-224.3,500-500S775.7,0,500,0z M538.5,788.5c0,21.2-17.2,38.5-38.5,38.5
	s-38.5-17.2-38.5-38.5V750c0-21.2,17.2-38.5,38.5-38.5s38.5,17.2,38.5,38.5V788.5z M538.5,634.6c0,21.2-17.2,38.5-38.5,38.5
	s-38.5-17.2-38.5-38.5V211.5c0-21.2,17.2-38.5,38.5-38.5s38.5,17.2,38.5,38.5V634.6z"/>
</svg>
